{
  "swagger": "2.0",
  "info": {
    "description": "API Doc for Calendar Test",
    "version": "1.0.0",
    "title": "Calendar Test",
    "termsOfService": "http://swagger.io/terms/",
    "contact": {
      "email": "christian@dauya.com"
    },
    "license": {
      "name": "Apache 2.0",
      "url": "http://www.apache.org/licenses/LICENSE-2.0.html"
    }
  },
  "host": "localhost:3000",
  "basePath": "/api/v1",
  "tags": [
    {
      "name": "dates",
      "description": "Appointments"
    }
  ],
  "schemes": [
    "http"
  ],
  "paths": {
    "/dates/": {
      "get": {
        "tags": [
          "dates"
        ],
        "summary": "Get all appointments",
        "description": "Get all appointments availables",
        "operationId": "list_all_dates",
        "produces": [
          "application/json"
        ],
        "responses": {
          "200": {
            "description": "successful operation",
            "schema": {
              "$ref": "#/definitions/Date"
            }
          },
          "404": {
            "description": "Page not found"
          }
        }
      }
    },
    "/dates/{dateId}": {
      "get": {
        "tags": [
          "dates"
        ],
        "summary": "Find an appointment by ID",
        "description": "Returns a single appointment",
        "operationId": "getDateById",
        "produces": [
          "application/json"
        ],
        "parameters": [
          {
            "name": "dateId",
            "in": "path",
            "description": "ID of appointment to return",
            "required": true,
            "type": "integer",
            "format": "int64"
          }
        ],
        "responses": {
          "200": {
            "description": "successful operation",
            "schema": {
              "$ref": "#/definitions/Date"
            }
          },
          "404": {
            "description": "appointment does not exist"
          }
        }
      }
    }
  },
  "definitions": {
    "Date": {
      "type": "object",
      "properties": {
        "id": {
          "type": "integer",
          "format": "int64"
        },
        "uuid": {
          "type": "string"
        },
        "title": {
          "type": "string"
        },
        "weekday": {
          "type": "string"
        },
        "description": {
          "type": "string"
        }
      },
      "xml": {
        "name": "Date"
      }
    }
  },
  "externalDocs": {
    "description": "Find out more about Swagger",
    "url": "http://swagger.io"
  }
}